{
  "count": 86,
  "next": "https://trenva.store/ng/api/products/?page=2",
  "previous": null,
  "results": [
    {
      "id": 93,
      "pid": "TfcfbnecnT",
      "user": "edidiongeka54",
      "category": "Beauty & Essentials",
      "subcategory": "Fragrances",
      "leveltwocategory": "Deodorants",
      "brand": "Riggs",
      "vendor": "Labby",
      "title": "Riggs pink",
      "image": "https://trenva.store/media/user_directory_path/IMG_20260329_210852.jpg",
      "description": "Good for all day smell",
      "vendor_price": "2000.00",
      "price": "2400.00",
      "old_price": null,
      "promo": false,
      "specifications": "",
      "tag": [],
      "product_status": "published",
      "color": [
        {
          "id": 3,
          "color_name": "White",
          "color_name_in_html": "white"
        },
        {
          "id": 4,
          "color_name": "Yellow",
          "color_name_in_html": "yellow"
        }
      ],
      "size": [],
      "status": true,
      "in_stock": true,
      "featured": false,
      "digital": false,
      "days": 0,
      "hours": 0,
      "minutes": 0,
      "seconds": 0,
      "countdown_start": "2026-04-01T17:06:34.448966+01:00",
      "sku": "sku5335",
      "date": "2026-04-01T17:06:34.449019+01:00",
      "updated": "2026-04-18T20:22:25+01:00",
      "p_images": [],
      "average_rating": 5,
      "discount_percentage": 0
    },
    {
      "id": 92,
      "pid": "cvcegbbbfa",
      "user": "edidiongeka54",
      "category": "Beauty & Essentials",
      "subcategory": "Fragrances",
      "leveltwocategory": "Deodorants",
      "brand": "Riggs",
      "vendor": "Labby",
      "title": "Riggs rustic",
      "image": "https://trenva.store/media/user_directory_path/IMG_20260329_210900.jpg",
      "description": "Perfume body spray for all day use",
      "vendor_price": "2000.00",
      "price": "2400.00",
      "old_price": null,
      "promo": false,
      "specifications": "",
      "tag": [],
      "product_status": "disabled",
      "color": [],
      "size": [],
      "status": true,
      "in_stock": false,
      "featured": false,
      "digital": false,
      "days": 0,
      "hours": 0,
      "minutes": 0,
      "seconds": 0,
      "countdown_start": "2026-03-31T18:55:45.265186+01:00",
      "sku": "sku8094",
      "date": "2026-03-31T18:55:45.265238+01:00",
      "updated": "2026-03-31T20:01:29+01:00",
      "p_images": [],
      "average_rating": 0,
      "discount_percentage": 0
    },
    {
      "id": 91,
      "pid": "anebbcbanc",
      "user": "edidiongeka54",
      "category": "Fashion",
      "subcategory": "Men Fashion",
      "leveltwocategory": "T-shirt ",
      "brand": "Cotton",
      "vendor": "Labby",
      "title": "Cotton shirt",
      "image": "https://trenva.store/media/user_directory_path/Screenshot_2026-03-04-14-40-28-266_com.whatsapp.jpg",
      "description": "Very good shirt",
      "vendor_price": "5000.00",
      "price": "6250.00",
      "old_price": null,
      "promo": false,
      "specifications": "",
      "tag": [],
      "product_status": "draft",
      "color": [],
      "size": [],
      "status": true,
      "in_stock": false,
      "featured": false,
      "digital": false,
      "days": 0,
      "hours": 0,
      "minutes": 0,
      "seconds": 0,
      "countdown_start": "2026-03-08T13:14:07.643115+01:00",
      "sku": "sku6997",
      "date": "2026-03-08T13:14:07.643169+01:00",
      "updated": "2026-04-29T15:58:59.538686+01:00",
      "p_images": [],
      "average_rating": 0,
      "discount_percentage": 0
    },
    {
      "id": 90,
      "pid": "nendddTdeb",
      "user": "edidiongeka54",
      "category": "Beauty & Essentials",
      "subcategory": null,
      "leveltwocategory": null,
      "brand": null,
      "vendor": "Labby",
      "title": "riggs",
      "image": "https://trenva.store/media/user_directory_path/_3_ESTA.jpg",
      "description": "very good product",
      "vendor_price": "800.00",
      "price": "1040.00",
      "old_price": "1300.00",
      "promo": false,
      "specifications": "\u003Cp\u003Every good product\u003C/p\u003E",
      "tag": [],
      "product_status": "disabled",
      "color": [],
      "size": [],
      "status": true,
      "in_stock": false,
      "featured": false,
      "digital": false,
      "days": 0,
      "hours": 0,
      "minutes": 0,
      "seconds": 0,
      "countdown_start": "2026-03-08T11:35:48.217976+01:00",
      "sku": "sku6915",
      "date": "2026-03-08T11:35:48.218013+01:00",
      "updated": "2026-04-29T15:58:20.625205+01:00",
      "p_images": [],
      "average_rating": 0,
      "discount_percentage": 20
    },
    {
      "id": 89,
      "pid": "bvbgvvnebv",
      "user": "akpabioesther70",
      "category": "Electronic",
      "subcategory": "Television & DVD",
      "leveltwocategory": null,
      "brand": "LENOVA",
      "vendor": "Esther",
      "title": "LAPTOP",
      "image": "https://trenva.store/media/user_directory_path/lappy_1.jpeg",
      "description": "Ideapad Slim 1",
      "vendor_price": "250000.00",
      "price": "300000.00",
      "old_price": "270000.00",
      "promo": false,
      "specifications": "Ultra slim design\r\nRapid Charge Boost\r\n8GB RAM\r\n256GB\r\nGraphics Card",
      "tag": [],
      "product_status": "published",
      "color": [
        {
          "id": 2,
          "color_name": "Black",
          "color_name_in_html": "black"
        },
        {
          "id": 3,
          "color_name": "White",
          "color_name_in_html": "white"
        }
      ],
      "size": [],
      "status": true,
      "in_stock": true,
      "featured": false,
      "digital": false,
      "days": 0,
      "hours": 0,
      "minutes": 0,
      "seconds": 0,
      "countdown_start": "2026-03-06T13:46:57.033812+01:00",
      "sku": "sku1442",
      "date": "2026-03-06T13:46:57.033872+01:00",
      "updated": "2026-04-29T15:56:12.441899+01:00",
      "p_images": [],
      "average_rating": 0,
      "discount_percentage": -11.1111111111111
    },
    {
      "id": 88,
      "pid": "drcvrTnfdb",
      "user": "akpabioesther70",
      "category": "Fashion",
      "subcategory": "Women Fashion",
      "leveltwocategory": "Socks ",
      "brand": "ZARA",
      "vendor": "Esther",
      "title": "Socks",
      "image": "https://trenva.store/media/user_directory_path/6_12_Pairs_Women_Heart_Pattern_Fashion_Mid-Calf_Socks_Fall.jpg",
      "description": "Female socks",
      "vendor_price": "5000.00",
      "price": "6250.00",
      "old_price": null,
      "promo": false,
      "specifications": "",
      "tag": [],
      "product_status": "published",
      "color": [
        {
          "id": 11,
          "color_name": "Gold",
          "color_name_in_html": "gold"
        }
      ],
      "size": [],
      "status": true,
      "in_stock": true,
      "featured": false,
      "digital": false,
      "days": 0,
      "hours": 0,
      "minutes": 0,
      "seconds": 0,
      "countdown_start": "2026-02-14T18:41:36.463486+01:00",
      "sku": "sku0592",
      "date": "2026-02-14T18:41:36.463537+01:00",
      "updated": "2026-04-29T15:56:36.164784+01:00",
      "p_images": [],
      "average_rating": 0,
      "discount_percentage": 0
    },
    {
      "id": 87,
      "pid": "nnvfcaeTTT",
      "user": "akpabioesther70",
      "category": "Fashion",
      "subcategory": "Women Fashion",
      "leveltwocategory": "Martenity Wear",
      "brand": "ZARA",
      "vendor": "Esther",
      "title": "Martenity wear",
      "image": "https://trenva.store/media/user_directory_path/Maternity_Elegant__Commuting_Vintage_Style_Tank_Top_2pcs_Set.jpg",
      "description": "Marternity Wear for women",
      "vendor_price": "10000.00",
      "price": "12500.00",
      "old_price": null,
      "promo": false,
      "specifications": "",
      "tag": [],
      "product_status": "published",
      "color": [
        {
          "id": 2,
          "color_name": "Black",
          "color_name_in_html": "black"
        },
        {
          "id": 6,
          "color_name": "Pink",
          "color_name_in_html": "pink"
        }
      ],
      "size": [],
      "status": true,
      "in_stock": true,
      "featured": false,
      "digital": false,
      "days": 0,
      "hours": 0,
      "minutes": 0,
      "seconds": 0,
      "countdown_start": "2026-02-14T18:38:57.630780+01:00",
      "sku": "sku0045",
      "date": "2026-02-14T18:38:57.630831+01:00",
      "updated": "2026-04-29T15:56:56.528192+01:00",
      "p_images": [],
      "average_rating": 0,
      "discount_percentage": 0
    },
    {
      "id": 86,
      "pid": "gbvcranTbc",
      "user": "akpabioesther70",
      "category": "Fashion",
      "subcategory": "Women Fashion",
      "leveltwocategory": "Sportswear & Gym Wear",
      "brand": "GUCCI",
      "vendor": "Esther",
      "title": "Sportwear",
      "image": "https://trenva.store/media/user_directory_path/Tennis_Styles.jpg",
      "description": "Female sports wear",
      "vendor_price": "20000.00",
      "price": "25000.00",
      "old_price": null,
      "promo": false,
      "specifications": "",
      "tag": [],
      "product_status": "published",
      "color": [
        {
          "id": 2,
          "color_name": "Black",
          "color_name_in_html": "black"
        }
      ],
      "size": [],
      "status": true,
      "in_stock": true,
      "featured": false,
      "digital": false,
      "days": 0,
      "hours": 0,
      "minutes": 0,
      "seconds": 0,
      "countdown_start": "2026-02-14T18:35:49.842450+01:00",
      "sku": "sku4181",
      "date": "2026-02-14T18:35:49.842500+01:00",
      "updated": "2026-04-29T15:57:22.695642+01:00",
      "p_images": [],
      "average_rating": 5,
      "discount_percentage": 0
    },
    {
      "id": 85,
      "pid": "cdcdbebfed",
      "user": "akpabioesther70",
      "category": "Fashion",
      "subcategory": "Women Fashion",
      "leveltwocategory": "Lingerie & Sleepwear",
      "brand": "ZARA",
      "vendor": "Esther",
      "title": "Lingerie",
      "image": "https://trenva.store/media/user_directory_path/download_38.jpg",
      "description": "Lace Lingerie",
      "vendor_price": "15000.00",
      "price": "18750.00",
      "old_price": null,
      "promo": false,
      "specifications": "",
      "tag": [],
      "product_status": "published",
      "color": [
        {
          "id": 2,
          "color_name": "Black",
          "color_name_in_html": "black"
        }
      ],
      "size": [],
      "status": true,
      "in_stock": true,
      "featured": false,
      "digital": false,
      "days": 0,
      "hours": 0,
      "minutes": 0,
      "seconds": 0,
      "countdown_start": "2026-02-14T18:31:12.977702+01:00",
      "sku": "sku8213",
      "date": "2026-02-14T18:31:12.977745+01:00",
      "updated": "2026-04-29T15:57:41.261253+01:00",
      "p_images": [],
      "average_rating": 0,
      "discount_percentage": 0
    },
    {
      "id": 84,
      "pid": "arbanrcnvd",
      "user": "akpabioesther70",
      "category": "Fashion",
      "subcategory": "Women Fashion",
      "leveltwocategory": "Gowns",
      "brand": "LOUIS VITTON",
      "vendor": "Esther",
      "title": "GOWN",
      "image": "https://trenva.store/media/user_directory_path/Firerie_Womens_Off-The-Shoulder_Pleated_Long_Sleeve_Dress_With_Split_Hem.jpg",
      "description": "Off-shoulder Mesh Gown",
      "vendor_price": "30000.00",
      "price": "37500.00",
      "old_price": null,
      "promo": false,
      "specifications": "",
      "tag": [],
      "product_status": "published",
      "color": [
        {
          "id": 2,
          "color_name": "Black",
          "color_name_in_html": "black"
        },
        {
          "id": 3,
          "color_name": "White",
          "color_name_in_html": "white"
        },
        {
          "id": 11,
          "color_name": "Gold",
          "color_name_in_html": "gold"
        }
      ],
      "size": [],
      "status": true,
      "in_stock": true,
      "featured": false,
      "digital": false,
      "days": 0,
      "hours": 0,
      "minutes": 0,
      "seconds": 0,
      "countdown_start": "2026-02-14T18:27:18.148639+01:00",
      "sku": "sku9489",
      "date": "2026-02-14T18:27:18.148678+01:00",
      "updated": "2026-04-29T15:57:57.490004+01:00",
      "p_images": [],
      "average_rating": 5,
      "discount_percentage": 0
    },
    {
      "id": 83,
      "pid": "vvveebcrad",
      "user": "akpabioesther70",
      "category": "Fashion",
      "subcategory": "Women Fashion",
      "leveltwocategory": "Native Wears",
      "brand": "ZARA FASHION",
      "vendor": "Esther",
      "title": "Native Wear",
      "image": "https://trenva.store/media/user_directory_path/download_37.jpg",
      "description": "Aso-Oke bubu dress",
      "vendor_price": "45000.00",
      "price": "56250.00",
      "old_price": null,
      "promo": false,
      "specifications": "",
      "tag": [],
      "product_status": "published",
      "color": [],
      "size": [
        {
          "id": 3,
          "size": "M"
        },
        {
          "id": 4,
          "size": "L"
        }
      ],
      "status": true,
      "in_stock": true,
      "featured": false,
      "digital": false,
      "days": 0,
      "hours": 0,
      "minutes": 0,
      "seconds": 0,
      "countdown_start": "2026-02-14T18:24:54.835359+01:00",
      "sku": "sku7778",
      "date": "2026-02-14T18:24:54.835394+01:00",
      "updated": "2026-04-29T15:59:39.353610+01:00",
      "p_images": [],
      "average_rating": 0,
      "discount_percentage": 0
    },
    {
      "id": 82,
      "pid": "rvvgnegveg",
      "user": "akpabioesther70",
      "category": "Fashion",
      "subcategory": "Women Fashion",
      "leveltwocategory": "Shorts",
      "brand": "LACOSTE",
      "vendor": "Esther",
      "title": "Denim Short",
      "image": "https://trenva.store/media/user_directory_path/Womens_Summer_Casual_Washed_Denim_Shorts.jpg",
      "description": "Female Denim short",
      "vendor_price": "25000.00",
      "price": "31250.00",
      "old_price": null,
      "promo": false,
      "specifications": "",
      "tag": [],
      "product_status": "published",
      "color": [
        {
          "id": 2,
          "color_name": "Black",
          "color_name_in_html": "black"
        },
        {
          "id": 3,
          "color_name": "White",
          "color_name_in_html": "white"
        }
      ],
      "size": [],
      "status": true,
      "in_stock": true,
      "featured": false,
      "digital": false,
      "days": 0,
      "hours": 0,
      "minutes": 0,
      "seconds": 0,
      "countdown_start": "2026-02-14T18:22:28.200810+01:00",
      "sku": "sku0165",
      "date": "2026-02-14T18:22:28.200848+01:00",
      "updated": "2026-04-29T16:00:13.506351+01:00",
      "p_images": [],
      "average_rating": 0,
      "discount_percentage": 0
    },
    {
      "id": 81,
      "pid": "acnrngfbbv",
      "user": "akpabioesther70",
      "category": "Fashion",
      "subcategory": "Women Fashion",
      "leveltwocategory": "Hoodies& Sweatshirts ",
      "brand": "ZARA",
      "vendor": "Esther",
      "title": "Hoodie",
      "image": "https://trenva.store/media/user_directory_path/Female_Personality_Sexy_Backless_Hoodie_Hollow_Mesh_Grid_Hoodies_Y2k_2JX8pWn.jpg",
      "description": "Female net hoodie",
      "vendor_price": "40000.00",
      "price": "50000.00",
      "old_price": null,
      "promo": false,
      "specifications": "",
      "tag": [],
      "product_status": "published",
      "color": [
        {
          "id": 2,
          "color_name": "Black",
          "color_name_in_html": "black"
        },
        {
          "id": 3,
          "color_name": "White",
          "color_name_in_html": "white"
        }
      ],
      "size": [],
      "status": true,
      "in_stock": true,
      "featured": false,
      "digital": false,
      "days": 0,
      "hours": 0,
      "minutes": 0,
      "seconds": 0,
      "countdown_start": "2026-02-14T18:21:06.181058+01:00",
      "sku": "sku7891",
      "date": "2026-02-14T18:21:06.181116+01:00",
      "updated": "2026-04-29T16:33:22.869480+01:00",
      "p_images": [],
      "average_rating": 0,
      "discount_percentage": 0
    },
    {
      "id": 80,
      "pid": "rncffdvTnb",
      "user": "akpabioesther70",
      "category": "Fashion",
      "subcategory": "Women Fashion",
      "leveltwocategory": "Jackets & Coats",
      "brand": "GUCCI",
      "vendor": "Esther",
      "title": "Jacket",
      "image": "https://trenva.store/media/user_directory_path/download_36.jpg",
      "description": "Brown Leather Jacket",
      "vendor_price": "70000.00",
      "price": "87500.00",
      "old_price": null,
      "promo": false,
      "specifications": "",
      "tag": [],
      "product_status": "published",
      "color": [],
      "size": [
        {
          "id": 3,
          "size": "M"
        },
        {
          "id": 4,
          "size": "L"
        }
      ],
      "status": true,
      "in_stock": true,
      "featured": false,
      "digital": false,
      "days": 0,
      "hours": 0,
      "minutes": 0,
      "seconds": 0,
      "countdown_start": "2026-02-14T18:19:39.364394+01:00",
      "sku": "sku4162",
      "date": "2026-02-14T18:19:39.364455+01:00",
      "updated": "2026-04-29T16:32:49.551638+01:00",
      "p_images": [],
      "average_rating": 0,
      "discount_percentage": 0
    },
    {
      "id": 79,
      "pid": "TbcgvTcdcb",
      "user": "akpabioesther70",
      "category": "Fashion",
      "subcategory": "Women Fashion",
      "leveltwocategory": "Suits & Blazers",
      "brand": "ZARA",
      "vendor": "Esther",
      "title": "Suit",
      "image": "https://trenva.store/media/user_directory_path/Womens_Elegant_Casual_Commute_Vacation_Afternoon_Tea_Party_Solid_Col_gLpmrli.jpg",
      "description": "A-Line pant set Blazer",
      "vendor_price": "150000.00",
      "price": "187500.00",
      "old_price": null,
      "promo": false,
      "specifications": "",
      "tag": [],
      "product_status": "published",
      "color": [],
      "size": [],
      "status": true,
      "in_stock": true,
      "featured": false,
      "digital": false,
      "days": 0,
      "hours": 0,
      "minutes": 0,
      "seconds": 0,
      "countdown_start": "2026-02-14T18:18:24.709260+01:00",
      "sku": "sku2107",
      "date": "2026-02-14T18:18:24.709315+01:00",
      "updated": "2026-04-29T16:32:24.218744+01:00",
      "p_images": [],
      "average_rating": 5,
      "discount_percentage": 0
    },
    {
      "id": 78,
      "pid": "dfcbeTrngg",
      "user": "akpabioesther70",
      "category": "Fashion",
      "subcategory": "Women Fashion",
      "leveltwocategory": "Jumpsuits & Rompers ",
      "brand": "ZARA",
      "vendor": "Esther",
      "title": "Jumpsuit",
      "image": "https://trenva.store/media/user_directory_path/OEAK_Womens_Flare_Jumpsuit_with_Bra_Tummy_Control_Cutout_Romper_Work_jHb2Tbc.jpg",
      "description": "Female Jumpsuit",
      "vendor_price": "90000.00",
      "price": "112500.00",
      "old_price": null,
      "promo": false,
      "specifications": "",
      "tag": [],
      "product_status": "published",
      "color": [],
      "size": [],
      "status": true,
      "in_stock": true,
      "featured": false,
      "digital": false,
      "days": 0,
      "hours": 0,
      "minutes": 0,
      "seconds": 0,
      "countdown_start": "2026-02-14T18:16:24.385025+01:00",
      "sku": "sku1669",
      "date": "2026-02-14T18:16:24.385084+01:00",
      "updated": "2026-04-29T16:32:04.888458+01:00",
      "p_images": [],
      "average_rating": 0,
      "discount_percentage": 0
    },
    {
      "id": 77,
      "pid": "vgnrneanae",
      "user": "akpabioesther70",
      "category": "Fashion",
      "subcategory": "Women Fashion",
      "leveltwocategory": "Leggings ",
      "brand": "ZARA",
      "vendor": "Esther",
      "title": "Leggings",
      "image": "https://trenva.store/media/user_directory_path/SUNCLOVE_2_Pack_Leggings_for_Women_Ribbed_Seamless_Leggings_High_Wai_FHJpsWF.jpg",
      "description": "Female leggings",
      "vendor_price": "5000.00",
      "price": "6250.00",
      "old_price": null,
      "promo": false,
      "specifications": "",
      "tag": [],
      "product_status": "published",
      "color": [],
      "size": [],
      "status": true,
      "in_stock": true,
      "featured": false,
      "digital": false,
      "days": 0,
      "hours": 0,
      "minutes": 0,
      "seconds": 0,
      "countdown_start": "2026-02-14T18:11:11.267697+01:00",
      "sku": "sku1703",
      "date": "2026-02-14T18:11:11.267729+01:00",
      "updated": "2026-04-29T16:31:49.110463+01:00",
      "p_images": [],
      "average_rating": 0,
      "discount_percentage": 0
    },
    {
      "id": 76,
      "pid": "aacfrbbfgg",
      "user": "akpabioesther70",
      "category": "Fashion",
      "subcategory": "Women Fashion",
      "leveltwocategory": "Jeans & Trousers",
      "brand": "ZARA",
      "vendor": "Esther",
      "title": "Jean Trouser",
      "image": "https://trenva.store/media/user_directory_path/download_34.jpg",
      "description": "Y2k Jean trousers",
      "vendor_price": "20000.00",
      "price": "25000.00",
      "old_price": null,
      "promo": false,
      "specifications": "",
      "tag": [],
      "product_status": "published",
      "color": [],
      "size": [],
      "status": true,
      "in_stock": true,
      "featured": false,
      "digital": false,
      "days": 0,
      "hours": 0,
      "minutes": 0,
      "seconds": 0,
      "countdown_start": "2026-02-14T17:54:23.809147+01:00",
      "sku": "sku4668",
      "date": "2026-02-14T17:54:23.809195+01:00",
      "updated": "2026-04-29T16:31:17.109372+01:00",
      "p_images": [],
      "average_rating": 0,
      "discount_percentage": 0
    },
    {
      "id": 75,
      "pid": "febbaraTac",
      "user": "akpabioesther70",
      "category": "Fashion",
      "subcategory": "Women Fashion",
      "leveltwocategory": "Shirts & Skirts ",
      "brand": "GUCCI",
      "vendor": "Esther",
      "title": "Shirt and Skirt",
      "image": "https://trenva.store/media/user_directory_path/Trendy_Pinstripe_Detail_Cropped_Shirt_with_Flap_Pocket.jpg",
      "description": "Two piece consisting of shirt and Skirt",
      "vendor_price": "70000.00",
      "price": "87500.00",
      "old_price": null,
      "promo": false,
      "specifications": "",
      "tag": [],
      "product_status": "published",
      "color": [],
      "size": [],
      "status": true,
      "in_stock": true,
      "featured": false,
      "digital": false,
      "days": 0,
      "hours": 0,
      "minutes": 0,
      "seconds": 0,
      "countdown_start": "2026-02-14T17:42:01.797405+01:00",
      "sku": "sku2756",
      "date": "2026-02-14T17:42:01.797457+01:00",
      "updated": "2026-04-29T16:30:54.209053+01:00",
      "p_images": [],
      "average_rating": 0,
      "discount_percentage": 0
    },
    {
      "id": 74,
      "pid": "cTbreabgar",
      "user": "akpabioesther70",
      "category": "Fashion",
      "subcategory": "Women Fashion",
      "leveltwocategory": "Tshirts & Polo",
      "brand": "ZARA",
      "vendor": "Esther",
      "title": "Tshirt",
      "image": "https://trenva.store/media/user_directory_path/download_33.jpg",
      "description": "Women Tshirt",
      "vendor_price": "10000.00",
      "price": "12500.00",
      "old_price": null,
      "promo": false,
      "specifications": "",
      "tag": [],
      "product_status": "published",
      "color": [],
      "size": [],
      "status": true,
      "in_stock": true,
      "featured": false,
      "digital": false,
      "days": 0,
      "hours": 0,
      "minutes": 0,
      "seconds": 0,
      "countdown_start": "2026-02-14T17:40:37.478847+01:00",
      "sku": "sku0979",
      "date": "2026-02-14T17:40:37.478894+01:00",
      "updated": "2026-04-29T16:30:36.381666+01:00",
      "p_images": [],
      "average_rating": 0,
      "discount_percentage": 0
    }
  ]
}